{
	"pages": [ //pages数组中第一项表示应用启动页，参考：https://uniapp.dcloud.io/collocation/pages
		{
			"path": "pages/home/home",
			"style": {
				"navigationBarTitleText": "智能舆情系统"
			}
		},{
			"path": "pages/index/index",
			"style": {
				"navigationBarTitleText": "智能舆情系统"
			}
		},
		// {
		// 	"path": "pages/demo/demo",
		// 	"style": {
		// 		"navigationBarTitleText": "智能舆情系统"
		// 	}
		// },
		{
			"path": "pages/login/login",
			"style": {
				"navigationBarTitleText": "登录"
			}
		},{
			"path": "pages/infoDetail/infoDetail",
			"style": {
				"navigationBarTitleText": "文章详情"
			}
		},{
			"path": "pages/password/password",
			"style": {
				"navigationBarTitleText": "密码修改"
			}
		},{
			"path": "pages/collectList/collectList",
			"style": {
				"navigationBarTitleText": "收藏夹"
			}
		}
	],
	"globalStyle": {
		"navigationBarTextStyle": "white",
		"navigationStyle":"custom",
		"navigationBarTitleText":"智能舆情系统"
	}
}
